INDEX VERSION 1.130+C:\Spring_workspace\.metadata\.plugins\org.eclipse.jdt.core
903380952.index
843575890.index
883193955.index
3271075340.index
599936918.index
2283881409.index
2894368051.index
4239545999.index
2007612136.index
928773895.index
3806330827.index
4023243454.index
129594013.index
3008798845.index
782577849.index
1865479214.index
2440405104.index
4233022217.index
853322337.index
1189661852.index
2888166007.index
2771560144.index
743100308.index
4182118091.index
1150949377.index
3965793831.index
3308921542.index
1389696189.index
3855587619.index
1446393211.index
4150450600.index
885959043.index
2018186860.index
2402991445.index
2691580586.index
2807630763.index
43478296.index
1838606518.index
3340966884.index
3423367414.index
2296354398.index
1834842490.index
3312516556.index
2981218776.index
2581612218.index
46246956.index
339459304.index
296485164.index
1768507781.index
4125974979.index
3089345628.index
284755543.index
561497920.index
3925844623.index
1329357884.index
3905532725.index
2172903624.index
2046006953.index
2717526421.index
2981026998.index
2268867641.index
3754428718.index
2015642761.index
2777409676.index
2241631470.index
992520236.index
2831474081.index
2703589003.index
3236983095.index
3757626741.index
1579100166.index
3312782294.index
427313397.index
872693512.index
4188145054.index
1893662393.index
2860691284.index
350369203.index
4184402228.index
3174133803.index
360147185.index
4113736720.index
3588246617.index
2196873035.index
1429867160.index
1256742924.index
3512552897.index
565299312.index
2868648918.index
3126512742.index
1710022870.index
2761556282.index
2698138980.index
3021810856.index
1189535202.index
2195749709.index
1503870311.index
2462585839.index
456596816.index
1731333390.index
1701788372.index
4018234919.index
2667243680.index
463948994.index
1182630226.index
859390671.index
1179450808.index
3511841181.index
816655502.index
1224847719.index
441200166.index
877964717.index
1883988847.index
1267737132.index
2308784507.index
3723655972.index
1759178428.index
520534580.index
1324198152.index
3425419900.index
1645319722.index
3768874573.index
3419444511.index
2131769300.index
2251498300.index
1230503605.index
2004011445.index
2382735039.index
53318757.index
809838706.index
2077691090.index
3791407381.index
1708272440.index
2164993763.index
1713026192.index
2444789964.index
785891847.index
885243925.index
739537409.index
2183325088.index
1387405884.index
4028324593.index
2451136817.index
887121463.index
1644054675.index
2421012302.index
1372737134.index
1746834229.index
597628670.index
53600979.index
1423002451.index
3876992555.index
213925841.index
3613208699.index
1115181543.index
1550572690.index
578650990.index
4230333698.index
3029156451.index
1052094399.index
3660143680.index
3024259393.index
1579992481.index
2545672383.index
2789951514.index
3278919945.index
555296967.index
218166341.index
1083558766.index
1030437755.index
3338302552.index
1772588839.index
1883091141.index
447992924.index
518545357.index
1201620210.index
418093416.index
2436901347.index
3932312848.index
3295772513.index
491472028.index
1140700663.index
3132506075.index
445282069.index
4142010182.index
2875914318.index
56393749.index
235878080.index
4137603234.index
645973304.index
1574661729.index
1965936391.index
3878659399.index
2234250526.index
2550369458.index
2520536935.index
409043761.index
21587684.index
3604422043.index
1512378474.index
657882862.index
1319441208.index
3434958110.index
3079182984.index
2642124314.index
1139335647.index
3288855696.index
1756702152.index
3516751549.index
3338806471.index
3122031272.index
753957756.index
4236239860.index
1969134250.index
2667074359.index
2604750155.index
1238495116.index
1087692974.index
294370254.index
668243271.index
3969430404.index
1585348759.index
363222070.index
817905337.index
1786521038.index
2724967238.index
1089822781.index
4137892363.index
1108371539.index
3190608750.index
2101063073.index
2263405210.index
3112174240.index
507619830.index
2915723229.index
3650953694.index
4119823216.index
1996981025.index
248892694.index
590396721.index
3193477465.index
1423956343.index
1824845277.index
152598758.index
78267837.index
2410159591.index
2546510981.index
3590977606.index
3305871947.index
226567502.index
1870980894.index
2880005527.index
1080541799.index
1041011276.index
1095603785.index
3257131564.index
49193899.index
2300867571.index
2537091237.index
3383989162.index
1941146064.index
4116258182.index
870785421.index
443964294.index
3258531926.index
3748974824.index
2207933395.index
1234689253.index
4251513129.index
335211976.index
4256155202.index
1604020235.index
2548699559.index
3149641950.index
4135741398.index
35556008.index
691551890.index
788274670.index
1718129566.index
3893993426.index
1665793047.index
434710412.index
3537889382.index
1051743334.index
3541390006.index
1726919026.index
3902328260.index
3028823580.index
1432278580.index
3910416300.index
1549539465.index
1026920625.index
3760227495.index
1102460182.index
3461869312.index
2588405926.index
391855554.index
280915598.index
137889146.index
2662539179.index
4264210550.index
3483191677.index
4034738823.index
4082296571.index
3793919968.index
1424793961.index
893717851.index
382614789.index
1154628406.index
2271660175.index
3547756284.index
262683993.index
4024668676.index
726401562.index
49310380.index
3953883398.index
213878493.index
997869696.index
826054133.index
102593960.index
2997567153.index
109599781.index
2547910122.index
1343121970.index
202537311.index
3150596477.index
2980404622.index
340859878.index
1083910963.index
152450235.index
2135795741.index
4075689512.index
34403309.index
2449452182.index
3406286589.index
3476529304.index
594498280.index
2664404007.index
1300097899.index
1602700583.index
3098137724.index
1174534784.index
3363508001.index
2955598709.index
2550151153.index
2767636782.index
3310386028.index
3898057629.index
4236135876.index
1258044018.index
1825468894.index
1288115097.index
958505345.index
2452364804.index
2908866915.index
3382791431.index
1459387538.index
4247647192.index
951022815.index
4261974178.index
3598723949.index
1026613755.index
281708534.index
1316557619.index
746545063.index
1258262388.index
3080610589.index
1950390899.index
1284887946.index
1929133444.index
1847730950.index
2860756939.index
2350788717.index
814540378.index
847095385.index
362877352.index
1254762074.index
440589866.index
1476866160.index
912513512.index
2424518686.index
2434504812.index
3323280202.index
1353757412.index
543292604.index
3746025998.index
158029219.index
3349725675.index
1999327845.index
2536225612.index
2247447686.index
1142641971.index
1386903942.index
3410206210.index
183850794.index
3428910913.index
4155983087.index
3371708047.index
2106040033.index
4235476520.index
1586503805.index
3318295383.index
3424102172.index
3524876624.index
3950215307.index
2062047611.index
3288364039.index
3026809848.index
453876819.index
1875292650.index
2808257115.index
2822033906.index
360694157.index
2803059955.index
1426337435.index
3638967250.index
3121342307.index
749701057.index
1574017912.index
2076144526.index
3588632204.index
3327153758.index
789714684.index
2939234713.index
227274182.index
1615290543.index
3761935677.index
2667842187.index
521952076.index
2892480189.index
428884538.index
1952388078.index
4134196544.index
1774652805.index
199668054.index
3147782371.index
1119616576.index
172914697.index
1339902127.index
1951569226.index
230492246.index
1104339160.index
140439499.index
3654172949.index
2630067610.index
1870290446.index
3815716085.index
114506961.index
1009553949.index
178500290.index
3925497890.index
2739662136.index
188824277.index
2745958278.index
4023258376.index
791390428.index
1360922853.index
3330235925.index
156447090.index
1990314316.index
1050100117.index
2973050877.index
475778622.index
2609474827.index
1901105780.index
2038152214.index
2327565978.index
1678011238.index
3503869596.index
3587747386.index
29365429.index
2017450991.index
2592540081.index
3741625375.index
442012722.index
755150161.index
695350439.index
3710371753.index
1494813120.index
2454219631.index
2920599714.index
1704680499.index
2122716472.index
1824870185.index
957446069.index
3368925827.index
3148900023.index
4132792656.index
430820737.index
4010001752.index
3330088325.index
1596152920.index
4180577356.index
3798773294.index
207469505.index
2142044785.index
4231506259.index
3094483980.index
2672158683.index
266976769.index
2084964931.index
2690513691.index
1972658092.index
3067039379.index
984888131.index
2160671992.index
1471545201.index
895678029.index
3302631809.index
4035360170.index
3995400558.index
3958535448.index
4191032021.index
2067560556.index
916609208.index
1005730302.index
845259342.index
2091255345.index
3260313353.index
1057819583.index
1396527398.index
2133776876.index
3124902457.index
3747564188.index
406294985.index
2790001216.index
4157852913.index
803425425.index
1577941461.index
3675538974.index
645716266.index
372489699.index
3108635262.index
495264031.index
459467569.index
346108253.index
3022101606.index
615598837.index
2820245631.index
1057717680.index
3226556580.index
4156752955.index
1619618112.index
1750903958.index
2035422533.index
2941762184.index
3763758814.index
3008099612.index
2152383338.index
1315422093.index
120972642.index
1354236573.index
17199117.index
2373493334.index
315441912.index
4026869191.index
2023711629.index
2253366983.index
50231138.index
3703136927.index
2926727834.index
3335715260.index
2079065030.index
1886586996.index
3508020708.index
3302482158.index
3848432093.index
