<?xml version="1.0" encoding="UTF-8"?>
<session version="1.0">
<refactoring comment="Rename type &apos;com.pack.SpringJpa1.EmployeeRepositoryInterface&apos; to &apos;EmployeeRepository&apos;&#x0D;&#x0A;- Original project: &apos;SpringJpa1&apos;&#x0D;&#x0A;- Original element: &apos;com.pack.SpringJpa1.EmployeeRepositoryInterface&apos;&#x0D;&#x0A;- Renamed element: &apos;com.pack.SpringJpa1.EmployeeRepository&apos;&#x0D;&#x0A;- Update references to refactored element&#x0D;&#x0A;- Update textual occurrences in comments and strings" description="Rename type &apos;EmployeeRepositoryInterface&apos;" flags="589830" id="org.eclipse.jdt.ui.rename.type" input="/src\/main\/java&lt;com.pack.SpringJpa1{EmployeeRepositoryInterface.java[EmployeeRepositoryInterface" matchStrategy="1" name="EmployeeRepository" qualified="false" references="true" similarDeclarations="false" stamp="1605680386626" textual="false" version="1.0"/>
</session>