<?xml version="1.0" encoding="UTF-8"?>
<session version="1.0">
<refactoring accessors="true" comment="Delete element from project &apos;EurekaServer&apos;&#x0D;&#x0A;- Original project: &apos;EurekaServer&apos;&#x0D;&#x0A;- Original element: &apos;EurekaServer/src/test/java/com.pack.EurekaServer&apos;" description="Delete element" element1="/src\/test\/java&lt;com.pack.EurekaServer" element2="/src\/test\/java&lt;com.pack" element3="/src\/test\/java&lt;com" elements="3" flags="589830" id="org.eclipse.jdt.ui.delete" resources="0" stamp="1606109905353" subPackages="false" version="1.0"/>
</session>